<?xml version="1.0" encoding="UTF-8" standalone="no"?>
<!-- Created with Inkscape (http://www.inkscape.org/) -->

<svg
   xmlns:dc="http://purl.org/dc/elements/1.1/"
   xmlns:cc="http://creativecommons.org/ns#"
   xmlns:rdf="http://www.w3.org/1999/02/22-rdf-syntax-ns#"
   xmlns:svg="http://www.w3.org/2000/svg"
   xmlns="http://www.w3.org/2000/svg"
   xmlns:sodipodi="http://sodipodi.sourceforge.net/DTD/sodipodi-0.dtd"
   xmlns:inkscape="http://www.inkscape.org/namespaces/inkscape"
   inkscape:version="0.48.3.1 r9886"
   version="1.1"
   id="svg2"
   height="576.16467"
   width="794.63562"
   sodipodi:docname="octa1.svg">
  <defs
     id="defs4" />
  <sodipodi:namedview
     id="base"
     pagecolor="#ffffff"
     bordercolor="#666666"
     borderopacity="1.0"
     inkscape:pageopacity="0.0"
     inkscape:pageshadow="2"
     inkscape:zoom="0.98994949"
     inkscape:cx="577.11314"
     inkscape:cy="355.44406"
     inkscape:document-units="px"
     inkscape:current-layer="layer1"
     showgrid="false"
     inkscape:object-nodes="true"
     inkscape:snap-smooth-nodes="true"
     inkscape:snap-object-midpoints="true"
     inkscape:snap-global="false"
     inkscape:window-width="1280"
     inkscape:window-height="744"
     inkscape:window-x="0"
     inkscape:window-y="27"
     inkscape:window-maximized="1"
     fit-margin-top="0"
     fit-margin-left="0"
     fit-margin-right="0"
     fit-margin-bottom="0"
     inkscape:snap-midpoints="true" />
  <metadata
     id="metadata7">
    <rdf:RDF>
      <cc:Work
         rdf:about="">
        <dc:format>image/svg+xml</dc:format>
        <dc:type
           rdf:resource="http://purl.org/dc/dcmitype/StillImage" />
        <dc:title />
      </cc:Work>
    </rdf:RDF>
  </metadata>
  <g
     inkscape:label="Capa 1"
     inkscape:groupmode="layer"
     id="layer1"
     transform="translate(-58.574833,-362.64658)">
    <path
       style="fill:#ff0000;stroke:#000000;stroke-width:1px;stroke-linecap:butt;stroke-linejoin:miter;stroke-opacity:1;opacity:0.18918919"
       d="m 64.108997,148.5126 395.714303,0 258.27643,283.48132 -395.71433,0 z"
       id="path4311"
       inkscape:connector-curvature="0"
       transform="translate(58.574833,362.64658)" />
    <rect
       style="fill:none;stroke:#000000;stroke-width:1;stroke-linecap:round;stroke-miterlimit:4;stroke-opacity:1;stroke-dasharray:1, 8;stroke-dashoffset:0"
       id="rect2985"
       width="395.71429"
       height="395.71429"
       x="122.68383"
       y="511.15918" />
    <rect
       style="fill:none;stroke:#000000;stroke-width:1;stroke-linecap:round;stroke-miterlimit:4;stroke-opacity:1;stroke-dasharray:1, 8;stroke-dashoffset:0"
       id="rect2985-3"
       width="395.71429"
       height="395.71429"
       x="380.96024"
       y="398.92624" />
    <path
       style="fill:none;stroke:#000000;stroke-width:1;stroke-linecap:round;stroke-linejoin:miter;stroke-miterlimit:4;stroke-opacity:1;stroke-dasharray:1, 8;stroke-dashoffset:0"
       d="M 122.68383,202.89148 380.96024,90.658539"
       id="path3773"
       inkscape:connector-curvature="0"
       transform="translate(0,308.2677)" />
    <path
       style="fill:none;stroke:#000000;stroke-width:1;stroke-linecap:round;stroke-linejoin:miter;stroke-miterlimit:4;stroke-opacity:1;stroke-dasharray:1, 8;stroke-dashoffset:0"
       d="M 518.39815,511.15918 776.67456,398.92624"
       id="path3773-6"
       inkscape:connector-curvature="0" />
    <path
       style="fill:none;stroke:#000000;stroke-width:1;stroke-linecap:round;stroke-linejoin:miter;stroke-miterlimit:4;stroke-opacity:1;stroke-dasharray:1, 8;stroke-dashoffset:0"
       d="M 518.39815,906.87344 776.67456,794.6405"
       id="path3773-2"
       inkscape:connector-curvature="0" />
    <path
       style="fill:none;stroke:#000000;stroke-width:1;stroke-linecap:round;stroke-linejoin:miter;stroke-miterlimit:4;stroke-opacity:1;stroke-dasharray:1, 8;stroke-dashoffset:0"
       d="M 122.68383,906.87347 380.96024,794.64053"
       id="path3773-8"
       inkscape:connector-curvature="0" />
    <path
       sodipodi:type="arc"
       style="fill:#000000;fill-opacity:1;stroke:#000000;stroke-width:1;stroke-linecap:round;stroke-linejoin:miter;stroke-miterlimit:4;stroke-opacity:1;stroke-dasharray:none;stroke-dashoffset:0"
       id="path3807"
       sodipodi:cx="35.714287"
       sodipodi:cy="101.23734"
       sodipodi:rx="5.7142859"
       sodipodi:ry="5.7142859"
       d="m 41.428573,101.23734 c 0,3.15592 -2.558373,5.71429 -5.714286,5.71429 -3.155913,0 -5.714286,-2.55837 -5.714286,-5.71429 0,-3.15591 2.558373,-5.714283 5.714286,-5.714283 3.155913,0 5.714286,2.558373 5.714286,5.714283 z"
       transform="translate(413.96491,353.80537)" />
    <path
       sodipodi:type="arc"
       id="path3922"
       style="fill:#000000;stroke:none"
       sodipodi:cx="708.86102"
       sodipodi:cy="365.36691"
       sodipodi:rx="1.5"
       sodipodi:ry="1.5"
       d="m 710.36102,365.36691 c 0,0.82843 -0.67157,1.5 -1.5,1.5 -0.82842,0 -1.5,-0.67157 -1.5,-1.5 0,-0.82842 0.67158,-1.5 1.5,-1.5 0.82843,0 1.5,0.67158 1.5,1.5 z" />
    <path
       sodipodi:type="arc"
       style="fill:#000000;fill-opacity:1;stroke:#000000;stroke-width:1;stroke-linecap:round;stroke-linejoin:miter;stroke-miterlimit:4;stroke-opacity:1;stroke-dasharray:none;stroke-dashoffset:0"
       id="path3807-1"
       sodipodi:cx="35.714287"
       sodipodi:cy="101.23734"
       sodipodi:rx="5.7142859"
       sodipodi:ry="5.7142859"
       d="m 41.428573,101.23734 c 0,3.15592 -2.558373,5.71429 -5.714286,5.71429 -3.155913,0 -5.714286,-2.55837 -5.714286,-5.71429 0,-3.15591 2.558373,-5.714283 5.714286,-5.714283 3.155913,0 5.714286,2.558373 5.714286,5.714283 z"
       transform="translate(611.82206,551.66251)" />
    <path
       sodipodi:type="arc"
       style="fill:#000000;fill-opacity:1;stroke:#000000;stroke-width:1;stroke-linecap:round;stroke-linejoin:miter;stroke-miterlimit:4;stroke-opacity:1;stroke-dasharray:none;stroke-dashoffset:0"
       id="path3807-16"
       sodipodi:cx="35.714287"
       sodipodi:cy="101.23734"
       sodipodi:rx="5.7142859"
       sodipodi:ry="5.7142859"
       d="m 41.428573,101.23734 c 0,3.15592 -2.558373,5.71429 -5.714286,5.71429 -3.155913,0 -5.714286,-2.55837 -5.714286,-5.71429 0,-3.15591 2.558373,-5.714283 5.714286,-5.714283 3.155913,0 5.714286,2.558373 5.714286,5.714283 z"
       transform="translate(284.82669,607.77898)" />
    <path
       sodipodi:type="arc"
       style="fill:#000000;fill-opacity:1;stroke:#000000;stroke-width:1;stroke-linecap:round;stroke-linejoin:miter;stroke-miterlimit:4;stroke-opacity:1;stroke-dasharray:none;stroke-dashoffset:0"
       id="path3807-2"
       sodipodi:cx="35.714287"
       sodipodi:cy="101.23734"
       sodipodi:rx="5.7142859"
       sodipodi:ry="5.7142859"
       d="m 41.428573,101.23734 c 0,3.15592 -2.558373,5.71429 -5.714286,5.71429 -3.155913,0 -5.714286,-2.55837 -5.714286,-5.71429 0,-3.15591 2.558373,-5.714283 5.714286,-5.714283 3.155913,0 5.714286,2.558373 5.714286,5.714283 z"
       transform="translate(413.9649,749.51966)" />
    <path
       sodipodi:type="arc"
       style="fill:#000000;fill-opacity:1;stroke:#000000;stroke-width:1;stroke-linecap:round;stroke-linejoin:miter;stroke-miterlimit:4;stroke-opacity:1;stroke-dasharray:none;stroke-dashoffset:0"
       id="path3807-3"
       sodipodi:cx="35.714287"
       sodipodi:cy="101.23734"
       sodipodi:rx="5.7142859"
       sodipodi:ry="5.7142859"
       d="m 41.428573,101.23734 c 0,3.15592 -2.558373,5.71429 -5.714286,5.71429 -3.155913,0 -5.714286,-2.55837 -5.714286,-5.71429 0,-3.15591 2.558373,-5.714283 5.714286,-5.714283 3.155913,0 5.714286,2.558373 5.714286,5.714283 z"
       transform="translate(216.10774,551.66251)" />
    <path
       sodipodi:type="arc"
       style="fill:#000000;fill-opacity:1;stroke:#000000;stroke-width:1;stroke-linecap:round;stroke-linejoin:miter;stroke-miterlimit:4;stroke-opacity:1;stroke-dasharray:none;stroke-dashoffset:0"
       id="path3807-7"
       sodipodi:cx="35.714287"
       sodipodi:cy="101.23734"
       sodipodi:rx="5.7142859"
       sodipodi:ry="5.7142859"
       d="m 41.428573,101.23734 c 0,3.15592 -2.558373,5.71429 -5.714286,5.71429 -3.155913,0 -5.714286,-2.55837 -5.714286,-5.71429 0,-3.15591 2.558373,-5.714283 5.714286,-5.714283 3.155913,0 5.714286,2.558373 5.714286,5.714283 z"
       transform="translate(543.10312,495.54603)" />
    <path
       style="fill:none;stroke:#000000;stroke-width:3;stroke-linecap:butt;stroke-linejoin:miter;stroke-opacity:1;stroke-miterlimit:4;stroke-dasharray:none"
       d="M 391.10436,92.396133 193.24719,290.25327"
       id="path3870"
       inkscape:connector-curvature="0"
       transform="translate(58.574833,362.64658)" />
    <path
       style="fill:none;stroke:#000000;stroke-width:3;stroke-linecap:butt;stroke-linejoin:miter;stroke-opacity:1;stroke-miterlimit:4;stroke-dasharray:none"
       d="M 588.96151,290.25327 391.10435,488.11042"
       id="path3872"
       inkscape:connector-curvature="0"
       transform="translate(58.574833,362.64658)" />
    <path
       style="fill:none;stroke:#000000;stroke-width:3;stroke-linecap:butt;stroke-linejoin:miter;stroke-opacity:1;stroke-miterlimit:4;stroke-dasharray:none"
       d="m 193.24719,290.25327 68.71896,56.11648 326.99536,-56.11648"
       id="path3874"
       inkscape:connector-curvature="0"
       transform="translate(58.574833,362.64658)" />
    <path
       style="fill:none;stroke:#000000;stroke-width:3;stroke-linecap:butt;stroke-linejoin:miter;stroke-opacity:1;stroke-miterlimit:4;stroke-dasharray:24,24;marker-start:none;stroke-dashoffset:0"
       d="M 391.10436,92.396133 520.24257,234.13679"
       id="path3876"
       inkscape:connector-curvature="0"
       transform="translate(58.574833,362.64658)" />
    <path
       style="fill:none;stroke:#000000;stroke-width:3;stroke-linecap:butt;stroke-linejoin:miter;stroke-opacity:1;stroke-miterlimit:4;stroke-dasharray:none"
       d="M 261.96614,346.36974 391.10435,488.11042"
       id="path3878"
       inkscape:connector-curvature="0"
       transform="translate(58.574833,362.64658)" />
    <path
       style="fill:none;stroke:#000000;stroke-width:3;stroke-linecap:butt;stroke-linejoin:miter;stroke-opacity:1;stroke-miterlimit:4;stroke-dasharray:24,24;stroke-dashoffset:0"
       d="M 588.96151,290.25327 520.24257,234.13679 193.24719,290.25327"
       id="path3880"
       inkscape:connector-curvature="0"
       transform="translate(58.574833,362.64658)" />
    <path
       style="fill:none;stroke:#000000;stroke-width:3;stroke-linecap:butt;stroke-linejoin:miter;stroke-opacity:1;stroke-miterlimit:4;stroke-dasharray:none"
       d="M 261.96615,346.36975 391.10436,92.396133 588.96151,290.25327"
       id="path3882"
       inkscape:connector-curvature="0"
       transform="translate(58.574833,362.64658)" />
    <path
       style="fill:none;stroke:#000000;stroke-width:3;stroke-linecap:butt;stroke-linejoin:miter;stroke-opacity:1;stroke-miterlimit:4;stroke-dasharray:none"
       d="M 193.24719,290.25327 391.10435,488.11042"
       id="path4070"
       inkscape:connector-curvature="0"
       transform="translate(58.574833,362.64658)" />
    <path
       style="fill:none;stroke:#000000;stroke-width:3;stroke-linecap:butt;stroke-linejoin:miter;stroke-opacity:1;stroke-miterlimit:4;stroke-dasharray:24,24;marker-start:none;stroke-dashoffset:0"
       d="M 391.10435,488.11042 520.24257,234.13679"
       id="path4072"
       inkscape:connector-curvature="0"
       transform="translate(58.574833,362.64658)" />
    <path
       style="opacity:0.16602316;fill:#0000ff;stroke:#0000ff;stroke-width:1px;stroke-linecap:butt;stroke-linejoin:miter;stroke-opacity:1"
       d="m 320.54099,511.15918 258.27641,-112.23294 0,395.71426 -258.27641,112.23294 z"
       id="path4313"
       inkscape:connector-curvature="0" />
    <path
       style="fill:#ffff00;stroke:#ffff00;stroke-width:1px;stroke-linecap:butt;stroke-linejoin:miter;stroke-opacity:1;opacity:0.31274131"
       d="M 322.38541,36.279659 459.82332,148.5126 459.8233,544.22689 322.3854,431.99392 z"
       id="path4319"
       inkscape:connector-curvature="0"
       transform="translate(58.574833,362.64658)" />
    <text
       xml:space="preserve"
       style="font-size:12px;font-style:normal;font-weight:normal;text-align:center;line-height:125%;letter-spacing:0px;word-spacing:0px;text-anchor:middle;fill:#000000;fill-opacity:1;stroke:none;font-family:Sans"
       x="450.27798"
       y="436.57559"
       id="text4419"
       sodipodi:linespacing="125%"><tspan
         sodipodi:role="line"
         id="tspan4421"
         x="450.27798"
         y="436.57559">$(1,0,0)$</tspan></text>
    <text
       xml:space="preserve"
       style="font-size:12px;font-style:normal;font-weight:normal;line-height:125%;letter-spacing:0px;word-spacing:0px;fill:#000000;fill-opacity:1;stroke:none;font-family:Sans"
       x="663.9649"
       y="652.18555"
       id="text4419-2"
       sodipodi:linespacing="125%"
       inkscape:transform-center-x="-13.571429"><tspan
         sodipodi:role="line"
         id="tspan4421-1"
         x="663.9649"
         y="652.18555">$(0,1,0)$</tspan></text>
    <text
       xml:space="preserve"
       style="font-size:12px;font-style:normal;font-weight:normal;text-align:end;line-height:125%;letter-spacing:0px;word-spacing:0px;text-anchor:end;fill:#000000;fill-opacity:1;stroke:none;font-family:Sans"
       x="295.61765"
       y="716.77374"
       id="text4419-2-3"
       sodipodi:linespacing="125%"
       inkscape:transform-center-x="-13.571429"><tspan
         sodipodi:role="line"
         id="tspan4421-1-8"
         x="295.61765"
         y="716.77374">$(1,0,0)$</tspan></text>
    <text
       xml:space="preserve"
       style="font-size:12px;font-style:normal;font-weight:normal;line-height:125%;letter-spacing:0px;word-spacing:0px;fill:#000000;fill-opacity:1;stroke:none;font-family:Sans"
       x="177.86055"
       y="499.52554"
       id="text4465"
       sodipodi:linespacing="125%"><tspan
         sodipodi:role="line"
         id="tspan4467"
         x="177.86055"
         y="499.52554">$\Pi_0$</tspan></text>
    <text
       xml:space="preserve"
       style="font-size:12px;font-style:normal;font-weight:normal;text-align:center;line-height:125%;letter-spacing:0px;word-spacing:0px;text-anchor:middle;fill:#000000;fill-opacity:1;stroke:none;font-family:Sans"
       x="581.15015"
       y="386.24054"
       id="text4465-6"
       sodipodi:linespacing="125%"><tspan
         sodipodi:role="line"
         id="tspan4467-4"
         x="581.15015"
         y="386.24054">$\Pi_2$</tspan></text>
    <text
       xml:space="preserve"
       style="font-size:12px;font-style:normal;font-weight:normal;text-align:center;line-height:125%;letter-spacing:0px;word-spacing:0px;text-anchor:middle;fill:#000000;fill-opacity:1;stroke:none;font-family:Sans"
       x="380.24582"
       y="388.27811"
       id="text4490"
       sodipodi:linespacing="125%"><tspan
         sodipodi:role="line"
         id="tspan4492"
         x="380.24582"
         y="388.27811">$\Pi_1$</tspan></text>
  </g>
</svg>
